…
``` r
library(tidyverse)
library(moderndive)
library(skimr)
library(partialeffects)
```

``` r
experimental_data
```

    ## # A tibble: 200 × 6
    ##    subjID   age systolic treatment site  machine
    ##    <chr>  <dbl>    <dbl> <fct>     <fct> <fct>  
    ##  1 1         64    173.  placebo   1     1      
    ##  2 2         43    146.  placebo   1     2      
    ##  3 3         44     70.4 placebo   2     1      
    ##  4 4         53    136.  placebo   1     1      
    ##  5 5         53     99.8 placebo   2     3      
    ##  6 6         70    137.  placebo   2     1      
    ##  7 7         33     89.6 placebo   2     2      
    ##  8 8         54     97.3 placebo   2     1      
    ##  9 9         51     84.9 placebo   2     1      
    ## 10 10        37     57.3 placebo   2     3      
    ## # … with 190 more rows
…
NB although it’s bad practice to overwrite variables, we bend the rules
in the code below for simplicity.  
NBB scaling is tricky to implement in tidy R. A wrapper function
`scale_this()` available
[here](https://stackoverflow.com/a/35776313/5308040) could be useful if
you are using this often.

``` r
experimental_data_scaled <- experimental_data %>% 
  mutate(age = (age-mean(age)) / sd(age)) %>% 
  print()
```

    ## # A tibble: 200 × 6
    ##    subjID     age systolic treatment site  machine
    ##    <chr>    <dbl>    <dbl> <fct>     <fct> <fct>  
    ##  1 1       0.738     173.  placebo   1     1      
    ##  2 2      -0.735     146.  placebo   1     2      
    ##  3 3      -0.665      70.4 placebo   2     1      
    ##  4 4      -0.0337    136.  placebo   1     1      
    ##  5 5      -0.0337     99.8 placebo   2     3      
    ##  6 6       1.16      137.  placebo   2     1      
    ##  7 7      -1.44       89.6 placebo   2     2      
    ##  8 8       0.0365     97.3 placebo   2     1      
    ##  9 9      -0.174      84.9 placebo   2     1      
    ## 10 10     -1.16       57.3 placebo   2     3      
    ## # … with 190 more rows
…
`extract_partial()` is a function to do just this. The function is
modelled on `moderndive::get_regression_points()` but further calculates
partial residuals (`partial_resid`) for effects of interest.

The entire `experimental_data_scaled` data is captured by the
`mod_scaled` object created above. Therefore this function needs only a
model object and the column name of the effect of interest:

``` r
partial_treatment <- extract_partial(mod_scaled, 'treatment') 
print(partial_treatment %>% select(-ID))
```

    ## # A tibble: 200 × 8
    ##    systolic treatment    age site  machine systolic_hat residual partial_resid
    ##       <dbl> <fct>      <dbl> <fct> <fct>          <dbl>    <dbl>         <dbl>
    ##  1    173.  placebo    0.738 1     1              166.     7.29           147.
    ##  2    146.  placebo   -0.735 1     2              153.    -7.11           133.
    ##  3     70.4 placebo   -0.665 2     1               72.3   -1.91           138.
    ##  4    136.  placebo   -0.034 1     1              139.    -2.64           137.
    ##  5     99.8 placebo   -0.034 2     3               93.8    6.05           146.
    ##  6    137.  placebo    1.16  2     1              135.     1.65           142.
    ##  7     89.6 placebo   -1.44  2     2               84.4    5.26           145.
    ##  8     97.3 placebo    0.036 2     1               96.5    0.812          141.
    ##  9     84.9 placebo   -0.174 2     1               89.2   -4.31           136.
    ## 10     57.3 placebo   -1.16  2     3               55.0    2.26           142.
    ## # … with 190 more rows
…
